<svg width="51" height="52" viewBox="0 0 51 52" fill="none" xmlns="http://www.w3.org/2000/svg">
<path d="M0.0146484 2.66357H48.4035V51.0524" stroke="#888DFF" stroke-width="5" stroke-miterlimit="10"/>
</svg>
